ISSS608 - Take-home Exercise 3 - Vast Challenge 2024
…
id2 <- mc3_edges %>%
  select(target) %>%
  rename(id = target)

mc3_nodes1 <- rbind(id1, id2) %>%
  distinct() %>%
  left_join(mc3_nodes, by = c("id" = "id")) %>%
  mutate(unmatched = "drop")

Verify results

print(mc3_nodes1)

# A tibble: 60,520 × 6
   id                     country     type     revenue ProductServices unmatched
   <chr>                  <chr>       <chr>      <dbl> <chr>           <chr>    
 1 4. SeaCargo Ges.m.b.H. Oceanus     Entity.…  23304. Tuna, sword fi… drop     
 2 9. RiverLine CJSC      Oceanus     Entity.…  50134. Unknown         drop     
 3 Aaron Acosta           Mawalara    Entity.…      0  <NA>            drop     
 4 Aaron Allen            Galduzim    Entity.…      0  <NA>            drop     
 5 Aaron Austin           Kethilim    Entity.…      0  <NA>            drop     
 6 Aaron Baker            Azurionix   Entity.…      0  <NA>            drop     
 7 Aaron Barry            Kondanovia  Entity.…      0  <NA>            drop     
 8 Aaron Bauer            Rio Solovia Entity.…      0  <NA>            drop     
 9 Aaron Bishop           Osterivaro  Entity.…      0  <NA>            drop     
10 Aaron Bolton           n.a.        Entity.…      0  <NA>            drop     
# ℹ 60,510 more rows
…
