ISSS608 - Visual Analytics and Applications - Take-home Exercise 1 Part I - Creating Data Visualisation Beyond Default
…
View Data

The tabset below allows the view of the newly created smaller Property Type tibble data frames in alphabetical order.

Apartment
Condominium
Detached House
Executive Condominium
Semi-Detached House
Terrace House

apart_df <- ppty_type_name[["Apartment"]]
apart_df

# A tibble: 1,425 × 14
   `Project Name`      `Transacted Price ($)` `Area (SQFT)` `Unit Price ($ PSF)`
   <chr>                                <dbl>         <dbl>                <dbl>
 1 TERRA HILL                         2190000          807.                 2713
 2 THE RESERVE RESIDE…                3412201         1324.                 2577
 3 PARC KOMO                          1758000         1001.                 1756
 4 SIXTH AVENUE CENTRE                1935000         1173.                 1649
 5 NOMA                               1500000          850.                 1764
 6 MAYSPRINGS                          960000          904.                 1062
 7 PARC ESTA                          2088000         1023.                 2042
 8 BLOSSOMS BY THE PA…                3364000         1302.                 2583
 9 THE RESERVE RESIDE…                3350000         1324.                 2530
10 NORTHVALE                           790000          689.                 1147
# ℹ 1,415 more rows
# ℹ 10 more variables: `Sale Date` <date>, Address <chr>, `Type of Sale` <chr>,
#   `Property Type` <chr>, `Number of Units` <dbl>, Tenure <chr>,
#   `Completion Date` <chr>, `Postal Code` <chr>, `Planning Region` <chr>,
#   `Planning Area` <chr>

condo_df <- ppty_type_name[["Condominium"]]
condo_df

# A tibble: 1,295 × 14
   `Project Name`      `Transacted Price ($)` `Area (SQFT)` `Unit Price ($ PSF)`
   <chr>                                <dbl>         <dbl>                <dbl>
 1 THE LANDMARK                       2726888         1076.                 2533
 2 PINETREE HILL                      1954000          797.                 2453
 3 ECO                                1620000          990.                 1636
 4 THE GARDENS AT BIS…                1800000         1206.                 1493
 5 THOMSON 800                        2800000         1625.                 1723
 6 SELETAR PARK RESID…                1490000         1507.                  989
 7 THE ESTUARY                        1540000         1195.                 1289
 8 THE INTERLACE                      2658000         1615.                 1646
 9 DUNMAN VIEW                        1800000         1216.                 1480
10 EUHABITAT                           788000          560.                 1408
# ℹ 1,285 more rows
# ℹ 10 more variables: `Sale Date` <date>, Address <chr>, `Type of Sale` <chr>,
#   `Property Type` <chr>, `Number of Units` <dbl>, Tenure <chr>,
#   `Completion Date` <chr>, `Postal Code` <chr>, `Planning Region` <chr>,
#   `Planning Area` <chr>

det_df <- ppty_type_name[["Detached House"]]
det_df

# A tibble: 39 × 14
   `Project Name`      `Transacted Price ($)` `Area (SQFT)` `Unit Price ($ PSF)`
   <chr>                                <dbl>         <dbl>                <dbl>
 1 N.A.                              15000000         8701.                 1724
 2 FRANKEL ESTATE                     8380000         4514.                 1856
 3 N.A.                              26500000        12871.                 2059
 4 N.A.                              13990000         5880.                 2379
 5 SELETAR HILLS ESTA…                8800000         8302.                 1060
 6 N.A.                              13400000         6448.                 2078
 7 KIARA 10                           3618000         5748.                  629
 8 VERDURE VILLAS                     5400000         5199.                 1039
 9 DUNEARN ESTATE                    17500000         5013.                 3491
10 FRANKEL ESTATE                     9500000         5635.                 1686
# ℹ 29 more rows
# ℹ 10 more variables: `Sale Date` <date>, Address <chr>, `Type of Sale` <chr>,
#   `Property Type` <chr>, `Number of Units` <dbl>, Tenure <chr>,
#   `Completion Date` <chr>, `Postal Code` <chr>, `Planning Region` <chr>,
#   `Planning Area` <chr>

ec_df <- ppty_type_name[["Executive Condominium"]]
ec_df

# A tibble: 549 × 14
   `Project Name`      `Transacted Price ($)` `Area (SQFT)` `Unit Price ($ PSF)`
   <chr>                                <dbl>         <dbl>                <dbl>
 1 TREASURE CREST                     1790000         1249.                 1434
 2 ESPARINA RESIDENCES                1318800          829.                 1591
 3 WATERBAY                           1598000         1141.                 1401
 4 TREASURE CREST                     1562000         1076.                 1451
 5 BLOSSOM RESIDENCES                 1245000         1055.                 1180
 6 NORTH GAIA                         1487000         1076.                 1381
 7 THE CRITERION                      1550000         1249.                 1241
 8 SOL ACRES                          1170000          850.                 1376
 9 LA CASA                            1130000         1141.                  990
10 ESPARINA RESIDENCES                1828000         1163.                 1572
# ℹ 539 more rows
# ℹ 10 more variables: `Sale Date` <date>, Address <chr>, `Type of Sale` <chr>,
#   `Property Type` <chr>, `Number of Units` <dbl>, Tenure <chr>,
#   `Completion Date` <chr>, `Postal Code` <chr>, `Planning Region` <chr>,
#   `Planning Area` <chr>

semi <- ppty_type_name[["Semi-Detached House"]]
semi

# A tibble: 82 × 14
   `Project Name`      `Transacted Price ($)` `Area (SQFT)` `Unit Price ($ PSF)`
   <chr>                                <dbl>         <dbl>                <dbl>
 1 ORCHID VILLAGE                    13100000         3667.                 3572
 2 MAYFLOWER GARDENS                  6980000         4085.                 1709
 3 HOLLAND GROVE                      3500000         2398.                 1459
 4 N.A.                               5900000         3996.                 1477
 5 N.A.                              11500000         6016                  1912
 6 SENNETT ESTATE                     6000000         4497.                 1334
 7 CAMELIA PARK                       5300000         4672.                 1135
 8 SERANGOON GARDEN E…                4700000         2486.                 1890
 9 N.A.                               5700000         4048.                 1408
10 FRANKEL ESTATE                     6300000         3828.                 1646
# ℹ 72 more rows
# ℹ 10 more variables: `Sale Date` <date>, Address <chr>, `Type of Sale` <chr>,
#   `Property Type` <chr>, `Number of Units` <dbl>, Tenure <chr>,
#   `Completion Date` <chr>, `Postal Code` <chr>, `Planning Region` <chr>,
#   `Planning Area` <chr>

terra <- ppty_type_name[["Terrace House"]]
terra

# A tibble: 177 × 14
   `Project Name`      `Transacted Price ($)` `Area (SQFT)` `Unit Price ($ PSF)`
   <chr>                                <dbl>         <dbl>                <dbl>
 1 POLLEN COLLECTION                  3850000         1808.                 2129
 2 SUMMER VILLAS                      2960000         3531.                  838
 3 SEMBAWANG HILLS ES…                4200000         2093.                 2007
 4 THE MORRIS RESIDEN…                3530000         4015.                  879
 5 CABANA                             2750000         3068.                  896
 6 APOLLO GARDENS                     5100000         4592.                 1111
 7 N.A.                               2750000         3299.                  834
 8 POLLEN COLLECTION                  4050000         2153.                 1881
 9 PICARDY GARDENS                    3940000         2310.                 1706
10 N.A.                               3950000         2646.                 1493
# ℹ 167 more rows
# ℹ 10 more variables: `Sale Date` <date>, Address <chr>, `Type of Sale` <chr>,
#   `Property Type` <chr>, `Number of Units` <dbl>, Tenure <chr>,
#   `Completion Date` <chr>, `Postal Code` <chr>, `Planning Region` <chr>,
#   `Planning Area` <chr>
…
